C:\Users\LENOVO\Downloads\postgress-boot-master\PresentationEjbInterface\src\main\java\Repas.java
C:\Users\LENOVO\Downloads\postgress-boot-master\PresentationEjbInterface\src\main\java\CalculInterface.java
C:\Users\LENOVO\Downloads\postgress-boot-master\PresentationEjbInterface\src\main\java\MangerInterface.java
